Lecture 6 - Mixed Effect Model Part II
…
numerator/denominator

## [1] 2.379855

We can clearly see that even this difference is quite large. In other words, the experiment we ran above was powered only to reliably distinguish between mean values separated by four standard deviation, which is massive effect size, that would be clearly detectable with a naked eye in the field, so probably there would be no need to run a formal test.

Let’s now try to analyse this dataset as a repeated measure experiment. We can average values by plot using the following lines:

Temporal.Data = dat %>%
  group_by(Treatment, DrillingDate, Week, Plot) %>%
  summarise(Count = mean(Count))

Temporal.Data

## # A tibble: 40 x 5
## # Groups:   Treatment, DrillingDate, Week [?]
##    Treatment DrillingDate  Week Plot  Count
##    <fct>     <fct>        <int> <fct> <dbl>
##  1 T1        D1               1 Pl1    35.9
##  2 T1        D1               2 Pl1    35.8
##  3 T1        D1               3 Pl1    35.0
##  4 T1        D1               4 Pl1    34.4
##  5 T1        D1               5 Pl1    34.8
##  6 T1        D2               1 Pl5    23.4
##  7 T1        D2               2 Pl5    32.8
##  8 T1        D2               3 Pl5    35.3
##  9 T1        D2               4 Pl5    36.1
## 10 T1        D2               5 Pl5    36.1
## # ... with 30 more rows
…
